<svg width="555" height="325" viewBox="0 0 555 325" fill="none" xmlns="http://www.w3.org/2000/svg">
<path opacity="0.1" d="M18.7995 287.084C57.4398 324.052 80.9018 291.614 133.726 288.779C180.299 286.28 206.674 319.123 253.032 324.181C315.093 330.952 351.745 294.104 409.721 274.382C453.059 259.639 486.705 324.93 518.281 302.282C567.086 267.276 563.504 176.04 529.427 108.416C491.831 33.8079 445.477 21.1145 364.294 3.40054C290.815 -12.6324 265.286 33.145 182.215 34.7629C131.676 35.7473 77.701 -9.33558 32.5105 34.7629C-9.06698 75.3357 28.3608 113.526 22.3775 163.661C15.6296 220.203 -22.1951 247.864 18.7995 287.084Z" fill="#6C63FF"/>
<rect x="64.8853" y="46.1196" width="406.332" height="235.769" rx="10" fill="#2E3136"/>
<rect x="64.8853" y="46.1196" width="39.8165" height="235.769" rx="10" fill="#212326"/>
<rect x="104.702" y="248.357" width="110.261" height="33.5316" fill="#282B30"/>
<rect x="139.414" y="257.788" width="55.1305" height="7.33504" rx="2" fill="#888B96"/>
<rect x="114.911" y="54.5029" width="89.8423" height="10.4786" rx="2" fill="#565A60"/>
<rect x="139.414" y="267.219" width="35.7327" height="5.23833" rx="2" fill="#565A60"/>
<rect x="214.963" y="46.1196" width="256.255" height="235.769" rx="10" fill="#36393E"/>
<ellipse cx="122.058" cy="264.075" rx="10.2094" ry="10.4786" fill="#AED2A1"/>
<ellipse cx="84.7936" cy="123.138" rx="12.7617" ry="13.0983" fill="#2D3035"/>
<ellipse cx="84.7936" cy="157.717" rx="12.7617" ry="13.0983" fill="#2D3035"/>
<ellipse cx="84.7936" cy="192.297" rx="12.7617" ry="13.0983" fill="#2D3035"/>
<ellipse cx="84.7936" cy="226.876" rx="12.7617" ry="13.0983" fill="#77C7F5"/>
<ellipse cx="128.183" cy="269.315" rx="5.10468" ry="5.23931" fill="#67B285"/>
<rect x="72.0319" y="63.9341" width="25.5234" height="26.1966" rx="8" fill="#768CD1"/>
<rect x="64.8853" y="63.9341" width="2.04187" height="26.1966" rx="1.02094" fill="#7D808A"/>
<rect x="72.0319" y="97.4653" width="25.5234" height="3.143" rx="1.5715" fill="#2D3035"/>
<ellipse cx="75.0947" cy="54.5022" rx="3.06281" ry="3.14359" fill="#2D3035"/>
<ellipse cx="84.283" cy="54.5022" rx="3.06281" ry="3.14359" fill="#2D3035"/>
<ellipse cx="93.4716" cy="54.5022" rx="3.06281" ry="3.14359" fill="#2D3035"/>
<rect x="104.702" y="73.364" width="110.261" height="24.1008" fill="#2C2F35"/>
<ellipse cx="121.547" cy="84.3668" rx="6.63608" ry="6.81111" fill="#565A60"/>
<rect x="139.414" y="77.5557" width="62.277" height="12.5744" rx="4" fill="#565A60"/>
<rect x="228.235" y="54.5029" width="53.0886" height="12.5744" rx="4" fill="#888B96"/>
<rect x="228.235" y="81.7476" width="33.6909" height="7.33504" rx="3.66752" fill="#888B96"/>
<rect x="246.612" y="104.801" width="33.6909" height="9.43077" rx="4" fill="#888B96"/>
<rect x="316.035" y="104.801" width="33.6909" height="9.43077" rx="4" fill="#888B96"/>
<rect x="433.443" y="104.801" width="15.314" height="9.43077" rx="4" fill="#888B96"/>
<rect x="357.894" y="104.801" width="67.3817" height="9.43077" rx="4" fill="#888B96"/>
<rect x="214.963" y="94.3213" width="253.192" height="2.09533" rx="1.04766" fill="#64686D"/>
<rect x="225.172" y="121.566" width="232.773" height="2.09533" rx="1.04766" fill="#64686D"/>
<rect x="299.7" y="81.7476" width="33.6909" height="7.33504" rx="3.66752" fill="#888B96"/>
<rect x="293.575" y="54.5029" width="23.4815" height="12.5744" rx="4" fill="#888B96"/>
<rect x="327.266" y="54.5029" width="23.4815" height="12.5744" rx="4" fill="#888B96"/>
<rect x="360.956" y="54.5029" width="23.4815" height="12.5744" rx="4" fill="#888B96"/>
<rect x="394.648" y="54.5029" width="23.4815" height="12.5744" rx="4" fill="#888B96"/>
<rect x="112.869" y="103.752" width="33.6909" height="9.43077" rx="4" fill="#565A60"/>
<rect x="152.686" y="103.752" width="49.0049" height="9.43077" rx="4" fill="#565A60"/>
<rect x="139.414" y="124.709" width="35.7327" height="9.43077" rx="4" fill="#565A60"/>
<rect x="139.414" y="149.858" width="35.7327" height="9.43077" rx="4" fill="#565A60"/>
<rect x="104.702" y="73.364" width="2.04187" height="23.053" rx="1.02094" fill="#7D808A"/>
<ellipse cx="456.414" cy="61.314" rx="4.59421" ry="4.71538" fill="#888B96"/>
<ellipse cx="234.871" cy="109.516" rx="6.63608" ry="6.81111" fill="#E7EBF3"/>
<ellipse cx="119.505" cy="129.425" rx="6.63608" ry="6.81111" fill="#EEA842"/>
<ellipse cx="308.378" cy="109.515" rx="2.55234" ry="2.61916" fill="#67B285"/>
<rect x="246.612" y="133.093" width="46.963" height="9.43077" rx="4" fill="#888B96"/>
<rect x="316.035" y="133.093" width="33.6909" height="9.43077" rx="4" fill="#888B96"/>
<rect x="357.894" y="133.093" width="42.8793" height="9.43077" rx="4" fill="#888B96"/>
<rect x="225.172" y="149.858" width="232.773" height="2.09533" rx="1.04766" fill="#64686D"/>
<ellipse cx="234.871" cy="137.808" rx="6.63608" ry="6.81111" fill="#E89C9F"/>
<ellipse cx="308.378" cy="137.808" rx="2.55234" ry="2.61916" fill="#67B285"/>
<rect x="246.612" y="161.385" width="22.4606" height="9.43077" rx="4" fill="#888B96"/>
<rect x="316.035" y="161.385" width="33.6909" height="9.43077" rx="4" fill="#888B96"/>
<rect x="225.172" y="178.15" width="232.773" height="2.09533" rx="1.04766" fill="#64686D"/>
<ellipse cx="234.871" cy="166.1" rx="6.63608" ry="6.81111" fill="#EEA842"/>
<ellipse cx="308.378" cy="166.1" rx="2.55234" ry="2.61916" fill="#67B285"/>
<rect x="246.612" y="189.677" width="28.5862" height="9.43077" rx="4" fill="#888B96"/>
<rect x="316.035" y="189.677" width="33.6909" height="9.43077" rx="4" fill="#888B96"/>
<rect x="354.831" y="189.677" width="26.5443" height="9.43077" rx="4" fill="#888B96"/>
<rect x="387.501" y="189.677" width="26.5443" height="9.43077" rx="4" fill="#888B96"/>
<rect x="225.172" y="206.443" width="232.773" height="2.09533" rx="1.04766" fill="#64686D"/>
<ellipse cx="234.871" cy="194.392" rx="6.63608" ry="6.81111" fill="#EEA842"/>
<ellipse cx="308.378" cy="194.392" rx="2.55234" ry="2.61916" fill="#67B285"/>
<rect x="246.612" y="217.969" width="39.8165" height="9.43077" rx="4" fill="#888B96"/>
<rect x="316.035" y="217.969" width="33.6909" height="9.43077" rx="4" fill="#888B96"/>
<rect x="357.894" y="217.969" width="16.335" height="9.43077" rx="4" fill="#888B96"/>
<rect x="225.172" y="234.735" width="232.773" height="2.09533" rx="1.04766" fill="#64686D"/>
<ellipse cx="234.871" cy="222.685" rx="6.63608" ry="6.81111" fill="#E7EBF3"/>
<ellipse cx="308.378" cy="222.684" rx="2.55234" ry="2.61916" fill="#67B285"/>
<rect x="246.612" y="246.261" width="46.963" height="9.43077" rx="4" fill="#888B96"/>
<rect x="316.035" y="246.261" width="33.6909" height="9.43077" rx="4" fill="#888B96"/>
<rect x="225.172" y="263.027" width="232.773" height="2.09533" rx="1.04766" fill="#64686D"/>
<ellipse cx="234.871" cy="250.977" rx="6.63608" ry="6.81111" fill="#77C7F5"/>
<ellipse cx="308.378" cy="250.976" rx="2.55234" ry="2.61916" fill="#67B285"/>
<ellipse cx="124.61" cy="134.664" rx="2.55234" ry="2.61916" fill="#67B285"/>
<ellipse cx="119.505" cy="153.526" rx="6.63608" ry="6.81111" fill="#77C7F5"/>
<ellipse cx="124.61" cy="158.765" rx="2.55234" ry="2.61916" fill="#67B285"/>
</svg>
