<svg width="440" height="264" viewBox="0 0 440 264" fill="none" xmlns="http://www.w3.org/2000/svg">
<circle opacity="0.1" cx="349.5" cy="174.5" r="7.5" fill="#C4C4C4"/>
<circle opacity="0.1" cx="349.5" cy="197.5" r="7.5" fill="#C4C4C4"/>
<circle opacity="0.1" cx="349.5" cy="220.5" r="7.5" fill="#C4C4C4"/>
<circle opacity="0.1" cx="349.5" cy="243.5" r="7.5" fill="#C4C4C4"/>
<circle opacity="0.1" cx="372.5" cy="174.5" r="7.5" fill="#C4C4C4"/>
<circle opacity="0.1" cx="372.5" cy="197.5" r="7.5" fill="#C4C4C4"/>
<circle opacity="0.1" cx="372.5" cy="220.5" r="7.5" fill="#C4C4C4"/>
<circle opacity="0.1" cx="372.5" cy="243.5" r="7.5" fill="#C4C4C4"/>
<circle opacity="0.1" cx="395.5" cy="174.5" r="7.5" fill="#C4C4C4"/>
<circle opacity="0.1" cx="395.5" cy="197.5" r="7.5" fill="#C4C4C4"/>
<circle opacity="0.1" cx="395.5" cy="220.5" r="7.5" fill="#C4C4C4"/>
<circle opacity="0.1" cx="395.5" cy="243.5" r="7.5" fill="#C4C4C4"/>
<circle opacity="0.1" cx="418.5" cy="174.5" r="7.5" fill="#C4C4C4"/>
<circle opacity="0.1" cx="418.5" cy="197.5" r="7.5" fill="#C4C4C4"/>
<circle opacity="0.1" cx="418.5" cy="220.5" r="7.5" fill="#C4C4C4"/>
<circle opacity="0.1" cx="418.5" cy="243.5" r="7.5" fill="#C4C4C4"/>
<path opacity="0.5" d="M219.281 264C340.386 264 438.562 260.163 438.562 255.43C438.562 250.697 340.386 246.86 219.281 246.86C98.1754 246.86 0 250.697 0 255.43C0 260.163 98.1754 264 219.281 264Z" fill="#232930"/>
<path d="M325.648 101.221H75.2755V250.125H325.648V101.221Z" fill="#3F3D56"/>
<path d="M137.239 101.221C136.983 116.89 130.564 131.831 119.366 142.823C108.168 153.814 93.088 159.974 77.3783 159.976C76.6747 159.976 75.9751 159.963 75.2755 159.939V101.221H137.239Z" fill="#51A7F8"/>
<path d="M212.709 250.125H188.897C189.793 247.694 191.415 245.596 193.544 244.114C195.673 242.632 198.207 241.838 200.803 241.838C203.399 241.838 205.933 242.632 208.062 244.114C210.191 245.596 211.813 247.694 212.709 250.125Z" fill="#51A7F8"/>
<path d="M325.648 173.104V223.26C319.193 222.945 313.107 220.166 308.65 215.497C304.193 210.829 301.708 204.629 301.708 198.182C301.708 191.735 304.193 185.536 308.65 180.867C313.107 176.199 319.193 173.419 325.648 173.104Z" fill="#51A7F8"/>
<path d="M279.653 155.329H121.705C117.631 155.329 114.328 158.624 114.328 162.688V162.688C114.328 166.752 117.631 170.046 121.705 170.046H279.653C283.727 170.046 287.029 166.752 287.029 162.688C287.029 158.624 283.727 155.329 279.653 155.329Z" fill="white"/>
<path d="M279.653 184.331H121.705C117.631 184.331 114.328 187.625 114.328 191.689V191.689C114.328 195.753 117.631 199.048 121.705 199.048H279.653C283.727 199.048 287.029 195.753 287.029 191.689C287.029 187.625 283.727 184.331 279.653 184.331Z" fill="white"/>
<path d="M279.653 213.332H233.857C229.783 213.332 226.48 216.626 226.48 220.69C226.48 224.754 229.783 228.049 233.857 228.049H279.653C283.727 228.049 287.029 224.754 287.029 220.69C287.029 216.626 283.727 213.332 279.653 213.332Z" fill="white"/>
<path d="M365.353 45.7561C365.353 45.7561 372.238 48.4269 372.62 57.2025C373.003 65.978 370.708 90.397 370.708 90.397C370.708 90.397 379.122 102.606 372.62 106.04C366.118 109.474 365.353 92.3047 365.353 92.3047L357.703 56.0578C357.703 56.0578 362.293 45.3746 365.353 45.7561Z" fill="#CFCFD5"/>
<path d="M294.976 73.9905C294.976 73.9905 278.529 84.6738 277.764 76.2798C276.999 67.8858 282.736 35.0728 282.736 35.0728C282.736 35.0728 283.501 20.9556 291.533 24.3896C299.565 27.8235 289.238 39.6514 289.238 39.6514L290.386 66.3596L298.035 65.9781L294.976 73.9905Z" fill="#C3C4CA"/>
<path d="M321.367 83.9107C321.367 83.9107 270.879 65.2149 273.556 86.9631C276.234 108.711 289.238 136.182 289.238 136.182L293.828 143.432H303.39L297.27 104.133C297.27 104.133 319.072 116.342 325.574 114.434C325.574 114.434 333.989 170.522 337.049 174.719C340.109 178.916 345.464 229.661 345.464 229.661L350.436 235.766H359.998V149.918C359.998 149.918 376.445 96.5017 363.823 93.8309C351.201 91.16 321.367 83.9107 321.367 83.9107Z" fill="#2F2E41"/>
<path d="M292.681 138.472C292.681 138.472 290.386 134.275 286.561 138.472C282.736 142.669 273.556 147.629 273.556 147.629C273.556 147.629 253.667 152.207 269.731 156.023C285.796 159.838 287.708 156.023 287.708 156.023C287.708 156.023 290.386 156.786 292.681 157.549C294.976 158.312 309.892 155.641 309.892 153.352C309.892 151.063 304.828 137.381 302.771 139.453C300.713 141.524 292.681 138.472 292.681 138.472Z" fill="#466593"/>
<path d="M351.169 231.989C351.169 231.989 345.529 227.356 344.202 228.68C342.875 230.004 335.909 238.939 335.909 238.939C335.909 238.939 317.331 253.168 334.25 255.485C351.169 257.801 350.174 251.514 350.174 251.514H355.481C356.145 251.514 365.102 247.543 364.77 245.888C364.438 244.233 360.458 230.741 359.131 231.696C357.804 232.651 351.169 231.989 351.169 231.989Z" fill="#466593"/>
<path d="M309.127 16.7586C309.127 16.7586 319.072 25.1526 325.957 25.1526C332.842 25.1526 316.012 40.796 316.012 40.796L301.095 27.4419L309.127 16.7586Z" fill="#C3C4CA"/>
<path d="M303 33C310.182 33 313.5 31.1645 313.5 24C313.5 16.8354 305.182 9 298 9C290.818 9 287.5 10.8355 287.5 18C287.5 25.1646 295.818 33 303 33Z" fill="#CBCCD2"/>
<path d="M312.952 40.796L312.654 37.7901C318.379 42.3437 321.514 24.2449 321.514 24.2449L326.339 22.1003C326.339 22.1003 333.989 14.0878 342.404 18.2848C350.818 22.4818 370.708 49.19 370.708 49.19C370.708 49.19 356.556 50.3347 358.468 61.3995C358.468 61.3995 372.62 97.6463 368.795 98.0279C364.97 98.4094 353.496 95.7386 341.639 101.08C329.782 106.422 324.427 102.988 324.427 102.988L318.307 83.1476C318.307 83.1476 306.833 76.6613 307.215 70.9381L289.5 77L290 65.5L302.243 52.6239C302.243 52.6239 301 50 312.952 40.796Z" fill="#575A89"/>
<path d="M290 65.5L289.5 77L307 70.5L302 53L290 65.5Z" fill="#4B4E83"/>
<path d="M287.985 19.6873C287.469 20.2603 286.821 20.7004 286.097 20.9702C285.356 21.1786 284.423 20.9231 284.128 20.2141L284.678 19.5002L283.029 18.4783L283.748 17.6376L282.42 16.1993L283.468 15.3699L281.473 13.9464C284.059 9.73702 286.855 5.4749 290.938 2.68446C295.021 -0.105976 300.726 -1.09752 304.908 1.54186C307.08 2.91219 308.615 5.08712 309.845 7.33759C312.319 11.8635 314.499 16.2753 314.821 21.4202C313.267 19.9107 310.999 19.0601 309.445 17.5507C308.757 16.8224 307.977 16.1858 307.126 15.6568C305.501 14.7426 303.556 14.6617 301.736 14.2493C300.207 13.9025 299.214 13.2146 298.056 12.2312C296.68 11.0614 296.623 11.5137 295.233 12.8308C292.819 15.1179 290.403 17.4034 287.985 19.6873Z" fill="#2F2E41"/>
<circle opacity="0.1" cx="36" cy="57" r="5" fill="#C4C4C4"/>
<circle opacity="0.1" cx="36" cy="75" r="5" fill="#C4C4C4"/>
<circle opacity="0.1" cx="36" cy="93" r="5" fill="#C4C4C4"/>
<circle opacity="0.1" cx="36" cy="111" r="5" fill="#C4C4C4"/>
<circle opacity="0.1" cx="54" cy="57" r="5" fill="#C4C4C4"/>
<circle opacity="0.1" cx="54" cy="75" r="5" fill="#C4C4C4"/>
<circle opacity="0.1" cx="54" cy="93" r="5" fill="#C4C4C4"/>
<circle opacity="0.1" cx="54" cy="111" r="5" fill="#C4C4C4"/>
<circle opacity="0.1" cx="72" cy="57" r="5" fill="#C4C4C4"/>
<circle opacity="0.1" cx="72" cy="75" r="5" fill="#C4C4C4"/>
<circle opacity="0.1" cx="72" cy="93" r="5" fill="#C4C4C4"/>
<circle opacity="0.1" cx="72" cy="111" r="5" fill="#C4C4C4"/>
<circle opacity="0.1" cx="90" cy="57" r="5" fill="#C4C4C4"/>
<circle opacity="0.1" cx="90" cy="75" r="5" fill="#C4C4C4"/>
<circle opacity="0.1" cx="90" cy="93" r="5" fill="#C4C4C4"/>
<circle opacity="0.1" cx="90" cy="111" r="5" fill="#C4C4C4"/>
<path d="M313 39.5C316 39 319.175 35.4292 321 31C322.232 28.0089 322.702 25.6124 322.5 24" stroke="#4B4E83" stroke-width="2"/>
<path d="M347 21.5C340.2 14.3 331.167 18.5 327.5 21.5C329.42 32.4475 351.895 53.5104 358 60C359.467 53.4276 362.033 50.9074 370.5 49C365.5 42.8333 353.8 28.7 347 21.5Z" fill="#4B4E83"/>
</svg>
