<svg width="80" height="80" viewBox="0 0 80 80" fill="none" xmlns="http://www.w3.org/2000/svg">
<g opacity="0.5">
<path d="M19.1667 27.5H44.1667V31.6667H19.1667V27.5ZM19.1667 35.8333H44.1667V40H19.1667V35.8333ZM19.1667 44.1667H35.8334V48.3333H19.1667V44.1667ZM48.3542 50.4167L42.0834 44.1667L38.9584 47.2917L48.3542 56.6667L62.9167 42.0833L59.7917 38.9583L48.3542 50.4167Z" fill="white"/>
</g>
<circle opacity="0.1" cx="40" cy="40" r="40" fill="#C4C4C4"/>
</svg>
