<svg width="80" height="80" viewBox="0 0 80 80" fill="none" xmlns="http://www.w3.org/2000/svg">
<circle opacity="0.1" cx="40" cy="40" r="40" fill="#C4C4C4"/>
<g opacity="0.5" style="transform: translate(15px, 15px)">
<path d="M6.25 27.0833H22.9167V6.25H6.25V27.0833ZM6.25 43.75H22.9167V31.25H6.25V43.75ZM27.0833 43.75H43.75V22.9167H27.0833V43.75ZM27.0833 6.25V18.75H43.75V6.25H27.0833Z" fill="white"/>
</g>
</svg>
