<svg width="50" height="50" viewBox="0 0 50 50" fill="none" xmlns="http://www.w3.org/2000/svg">
<g opacity="0.2">
<path d="M25.0001 4.16663C13.4792 4.16663 4.16675 13.4791 4.16675 25C4.16675 36.5208 13.4792 45.8333 25.0001 45.8333C36.5209 45.8333 45.8334 36.5208 45.8334 25C45.8334 13.4791 36.5209 4.16663 25.0001 4.16663ZM35.4167 32.4791L32.4792 35.4166L25.0001 27.9375L17.5209 35.4166L14.5834 32.4791L22.0626 25L14.5834 17.5208L17.5209 14.5833L25.0001 22.0625L32.4792 14.5833L35.4167 17.5208L27.9376 25L35.4167 32.4791Z" fill="white"/>
</g>
</svg>
