<svg width="25" height="28" viewBox="0 0 25 28" fill="none" xmlns="http://www.w3.org/2000/svg">
<path d="M16.5857 13.3C16.5857 14.154 15.9429 14.854 15.1286 14.854C14.3286 14.854 13.6714 14.154 13.6714 13.3C13.6714 12.446 14.3143 11.746 15.1286 11.746C15.9429 11.746 16.5857 12.446 16.5857 13.3ZM9.91429 11.746C9.1 11.746 8.45714 12.446 8.45714 13.3C8.45714 14.154 9.11429 14.854 9.91429 14.854C10.7286 14.854 11.3714 14.154 11.3714 13.3C11.3857 12.446 10.7286 11.746 9.91429 11.746ZM25 2.884V28C21.401 24.8831 22.552 25.9149 18.3714 22.106L19.1286 24.696H2.92857C1.31429 24.696 0 23.408 0 21.812V2.884C0 1.288 1.31429 0 2.92857 0H22.0714C23.6857 0 25 1.288 25 2.884ZM20.9286 16.156C20.9286 11.648 18.8714 7.994 18.8714 7.994C16.8143 6.482 14.8571 6.524 14.8571 6.524L14.6571 6.748C17.0857 7.476 18.2143 8.526 18.2143 8.526C14.8208 6.70332 10.8346 6.70299 7.54286 8.12C7.01429 8.358 6.7 8.526 6.7 8.526C6.7 8.526 7.88571 7.42 10.4571 6.692L10.3143 6.524C10.3143 6.524 8.35714 6.482 6.3 7.994C6.3 7.994 4.24286 11.648 4.24286 16.156C4.24286 16.156 5.44286 18.186 8.6 18.284C8.6 18.284 9.12857 17.654 9.55714 17.122C7.74286 16.59 7.05714 15.47 7.05714 15.47C7.2673 15.6142 7.61384 15.801 7.64286 15.82C10.0541 17.1433 13.4792 17.5769 16.5571 16.31C17.0571 16.128 17.6143 15.862 18.2 15.484C18.2 15.484 17.4857 16.632 15.6143 17.15C16.0429 17.682 16.5571 18.284 16.5571 18.284C19.7143 18.186 20.9286 16.156 20.9286 16.156Z" fill="#353F49"/>
</svg>
